#include<stdio.h>
int main()
{
	int num=0, total=0;
	do 
	{
	printf("Enter your positive integer > ");
	scanf("%d",&num);
	if (num<=0) break;
	total+=num;
	}
	while(num>0);
	printf("Total %d \n", total);
	return 0;

}